%YAML 1.1
%TAG !u! tag:unity3d.com,2011:
--- !u!114 &11400000
MonoBehaviour:
  m_ObjectHideFlags: 0
  m_CorrespondingSourceObject: {fileID: 0}
  m_PrefabInstance: {fileID: 0}
  m_PrefabAsset: {fileID: 0}
  m_GameObject: {fileID: 0}
  m_Enabled: 1
  m_EditorHideFlags: 0
  m_Script: {fileID: -1893448595, guid: a040fb66244a7f54289914d98ea4ef7d, type: 3}
  m_Name: Bolt
  m_EditorClassIdentifier: 
  _data:
    _json: '{"graph":{"variables":{"collection":{"$content":[],"$version":"A"},"$version":"A"},"controlInputDefinitions":[],"controlOutputDefinitions":[],"valueInputDefinitions":[],"valueOutputDefinitions":[],"title":"CapsuleMovement","summary":null,"pan":{"x":-1.5,"y":9.0},"zoom":1.0,"elements":[{"coroutine":false,"defaultValues":{},"position":{"x":-385.0,"y":-172.0},"guid":"71b90c9b-c563-4cf6-bd59-06b455fc1e00","$version":"A","$type":"Bolt.Update","$id":"9"},{"chainable":false,"member":{"name":"ClampMagnitude","parameterTypes":["UnityEngine.Vector3","System.Single"],"targetType":"UnityEngine.Vector3","targetTypeName":"UnityEngine.Vector3","$version":"A"},"defaultValues":{"%vector":{"x":0.0,"y":0.0,"z":0.0,"$type":"UnityEngine.Vector3"},"%maxLength":{"$content":1.0,"$type":"System.Single"}},"position":{"x":-183.0,"y":-195.0},"guid":"3bfc99f7-5f50-41f9-b466-6f5e8bafecfc","$version":"A","$type":"Bolt.InvokeMember","$id":"11"},{"chainable":false,"member":{"name":"Translate","parameterTypes":["UnityEngine.Vector3"],"targetType":"UnityEngine.Transform","targetTypeName":"UnityEngine.Transform","$version":"A"},"defaultValues":{"target":null,"%translation":{"x":0.0,"y":0.0,"z":0.0,"$type":"UnityEngine.Vector3"}},"position":{"x":262.0,"y":-200.0},"guid":"ff828256-dcdd-42bd-bb3c-13d75bfa5ed5","$version":"A","$type":"Bolt.InvokeMember","$id":"14"},{"specifyFallback":false,"kind":"Object","defaultValues":{"name":{"$content":"MoveAxis","$type":"System.String"},"object":null},"position":{"x":-395.0,"y":-38.0},"guid":"8dfb113d-a7ba-4bf4-87ec-f196b164dc6d","$version":"A","$type":"Bolt.GetVariable","$id":"17"},{"specifyFallback":false,"kind":"Object","defaultValues":{"name":{"$content":"MoveSpeed","$type":"System.String"},"object":null},"position":{"x":-143.0,"y":-33.0},"guid":"2b438697-1472-4bfd-ac3b-b2ae6e37e504","$version":"A","$type":"Bolt.GetVariable","$id":"19"},{"member":{"name":"deltaTime","parameterTypes":null,"targetType":"UnityEngine.Time","targetTypeName":"UnityEngine.Time","$version":"A"},"defaultValues":{},"position":{"x":-315.0,"y":108.0},"guid":"402651a2-2ed7-4906-b1fb-072a8cd5e825","$version":"A","$type":"Bolt.GetMember","$id":"21"},{"defaultValues":{},"position":{"x":22.0,"y":126.0},"guid":"ac015a12-72fc-451c-bd9e-c9751d72a0f8","$version":"A","$type":"Bolt.GenericMultiply","$id":"24"},{"defaultValues":{},"position":{"x":139.0,"y":-24.0},"guid":"0e41ead5-b76b-479f-8b84-1770f356b377","$version":"A","$type":"Bolt.GenericMultiply","$id":"26"},{"sourceUnit":{"$ref":"9"},"sourceKey":"trigger","destinationUnit":{"$ref":"11"},"destinationKey":"enter","guid":"95f3331e-e970-447e-99c8-81a558fe0bfd","$type":"Bolt.ControlConnection"},{"sourceUnit":{"$ref":"11"},"sourceKey":"exit","destinationUnit":{"$ref":"14"},"destinationKey":"enter","guid":"9d77b51c-672e-4892-bb52-fd5cb5bb48cb","$type":"Bolt.ControlConnection"},{"sourceUnit":{"$ref":"17"},"sourceKey":"value","destinationUnit":{"$ref":"11"},"destinationKey":"%vector","guid":"d1230d83-3f6b-4810-8845-8df026f0cf29","$type":"Bolt.ValueConnection"},{"sourceUnit":{"$ref":"21"},"sourceKey":"value","destinationUnit":{"$ref":"24"},"destinationKey":"b","guid":"f62a92e8-ac84-47c6-aaed-ed7d0a9deb0a","$type":"Bolt.ValueConnection"},{"sourceUnit":{"$ref":"19"},"sourceKey":"value","destinationUnit":{"$ref":"24"},"destinationKey":"a","guid":"c79fea32-82ca-4a67-afe2-e9361c949d5b","$type":"Bolt.ValueConnection"},{"sourceUnit":{"$ref":"24"},"sourceKey":"product","destinationUnit":{"$ref":"26"},"destinationKey":"b","guid":"3fdccc6d-710f-4152-ab7c-f157942472a7","$type":"Bolt.ValueConnection"},{"sourceUnit":{"$ref":"11"},"sourceKey":"result","destinationUnit":{"$ref":"26"},"destinationKey":"a","guid":"fa592aae-d8f7-4ee4-a33e-5f282a331eaf","$type":"Bolt.ValueConnection"},{"sourceUnit":{"$ref":"26"},"sourceKey":"product","destinationUnit":{"$ref":"14"},"destinationKey":"%translation","guid":"8e0b3faa-5f98-4fbf-96e5-e90cb7994f87","$type":"Bolt.ValueConnection"}],"$version":"A"}}'
    _objectReferences: []
