%YAML 1.1
%TAG !u! tag:unity3d.com,2011:
--- !u!114 &11400000
MonoBehaviour:
  m_ObjectHideFlags: 0
  m_CorrespondingSourceObject: {fileID: 0}
  m_PrefabInstance: {fileID: 0}
  m_PrefabAsset: {fileID: 0}
  m_GameObject: {fileID: 0}
  m_Enabled: 1
  m_EditorHideFlags: 0
  m_Script: {fileID: -1893448595, guid: a040fb66244a7f54289914d98ea4ef7d, type: 3}
  m_Name: CapsuleMovement
  m_EditorClassIdentifier: 
  _data:
    _json: '{"graph":{"variables":{"collection":{"$content":[],"$version":"A"},"$version":"A"},"controlInputDefinitions":[],"controlOutputDefinitions":[],"valueInputDefinitions":[],"valueOutputDefinitions":[],"title":"CapsuleMovement","summary":null,"pan":{"x":0.0,"y":0.0},"zoom":1.0,"elements":[{"coroutine":false,"defaultValues":{},"position":{"x":-428.0,"y":-200.0},"guid":"7dfec6d9-dd6a-4b68-8b62-023b14d10913","$version":"A","$type":"Bolt.Update","$id":"9"},{"chainable":false,"member":{"name":"ClampMagnitude","parameterTypes":["UnityEngine.Vector3","System.Single"],"targetType":"UnityEngine.Vector3","targetTypeName":"UnityEngine.Vector3","$version":"A"},"defaultValues":{"%vector":{"x":0.0,"y":0.0,"z":0.0,"$type":"UnityEngine.Vector3"},"%maxLength":{"$content":1.0,"$type":"System.Single"}},"position":{"x":-200.0,"y":-213.0},"guid":"848a63d2-27a4-4245-b221-1943ac489e54","$version":"A","$type":"Bolt.InvokeMember","$id":"11"},{"member":{"name":"deltaTime","parameterTypes":null,"targetType":"UnityEngine.Time","targetTypeName":"UnityEngine.Time","$version":"A"},"defaultValues":{},"position":{"x":-320.0,"y":88.0},"guid":"d8f79929-2dbe-413d-b3d7-0bc7d79dd70e","$version":"A","$type":"Bolt.GetMember","$id":"14"},{"defaultValues":{},"position":{"x":6.0,"y":83.0},"guid":"289c8496-1eb6-44ff-a3b3-02223f2b4c99","$version":"A","$type":"Bolt.GenericMultiply","$id":"17"},{"defaultValues":{},"position":{"x":141.0,"y":-64.0},"guid":"ce5f2126-92c4-4b4e-b317-72616c530002","$version":"A","$type":"Bolt.GenericMultiply","$id":"19"},{"chainable":false,"member":{"name":"Rotate","parameterTypes":["UnityEngine.Vector3"],"targetType":"UnityEngine.Transform","targetTypeName":"UnityEngine.Transform","$version":"A"},"defaultValues":{"target":null,"%eulers":{"x":0.0,"y":0.0,"z":0.0,"$type":"UnityEngine.Vector3"}},"position":{"x":285.0,"y":-213.0},"guid":"3906835e-7e40-47c2-a01d-d351f8f50a7e","$version":"A","$type":"Bolt.InvokeMember","$id":"21"},{"specifyFallback":false,"kind":"Flow","defaultValues":{"name":{"$content":"RotationSpeed","$type":"System.String"}},"position":{"x":-429.0,"y":-55.0},"guid":"84b5baa8-aee6-4e7c-b9e3-cb063990d913","$version":"A","$type":"Bolt.GetVariable","$id":"24"},{"specifyFallback":false,"kind":"Flow","defaultValues":{"name":{"$content":"RotationSpeed","$type":"System.String"}},"position":{"x":-158.0,"y":-65.0},"guid":"d4272bc6-faed-41f4-bcc0-6e0718e34091","$version":"A","$type":"Bolt.GetVariable","$id":"26"},{"sourceUnit":{"$ref":"9"},"sourceKey":"trigger","destinationUnit":{"$ref":"11"},"destinationKey":"enter","guid":"1dcfc10a-d170-4b5b-b182-6be1346f3388","$type":"Bolt.ControlConnection"},{"sourceUnit":{"$ref":"11"},"sourceKey":"exit","destinationUnit":{"$ref":"21"},"destinationKey":"enter","guid":"9f1074ae-0e50-4fc9-9c53-aa90bd1a1a53","$type":"Bolt.ControlConnection"},{"sourceUnit":{"$ref":"14"},"sourceKey":"value","destinationUnit":{"$ref":"17"},"destinationKey":"a","guid":"5a001997-3a44-4d06-87a8-8acd72f97040","$type":"Bolt.ValueConnection"},{"sourceUnit":{"$ref":"19"},"sourceKey":"product","destinationUnit":{"$ref":"21"},"destinationKey":"%eulers","guid":"6df7bda6-d517-42d4-afcf-80ce475e0f8a","$type":"Bolt.ValueConnection"},{"sourceUnit":{"$ref":"26"},"sourceKey":"value","destinationUnit":{"$ref":"17"},"destinationKey":"b","guid":"3dbfd3e8-efc6-42d8-908c-3852255781e1","$type":"Bolt.ValueConnection"},{"sourceUnit":{"$ref":"24"},"sourceKey":"value","destinationUnit":{"$ref":"11"},"destinationKey":"%vector","guid":"f51473dd-5afd-48c6-921a-5c0401c75f74","$type":"Bolt.ValueConnection"},{"sourceUnit":{"$ref":"17"},"sourceKey":"product","destinationUnit":{"$ref":"19"},"destinationKey":"b","guid":"44f24b24-a965-4684-9b73-fa847ad96fce","$type":"Bolt.ValueConnection"},{"sourceUnit":{"$ref":"11"},"sourceKey":"result","destinationUnit":{"$ref":"19"},"destinationKey":"a","guid":"47c2bcf7-152f-4c24-99ed-29f5d4fb9c48","$type":"Bolt.ValueConnection"}],"$version":"A"}}'
    _objectReferences: []
